INDEX VERSION 1.131+D:\Project\Project_Own\sachin_project\Backend\.metadata\.plugins\org.eclipse.jdt.core
2894403745.index
3760905779.index
2670958845.index
756406424.index
3370765593.index
2242365665.index
461126559.index
124086406.index
1168035786.index
3052977850.index
790623910.index
2049661612.index
891836129.index
1118426662.index
2193673275.index
2133092903.index
1065718429.index
1011310958.index
3071646129.index
2961640999.index
3655603845.index
1924189795.index
3167185580.index
110748547.index
701706286.index
2214968899.index
612257450.index
2681608718.index
3597572284.index
1902938903.index
828172935.index
495057340.index
2979760707.index
1443879307.index
3664921028.index
1019269603.index
1544083519.index
3755913827.index
4173945264.index
1533801091.index
2453532066.index
3231207132.index
3394672117.index
1560123492.index
2735914682.index
68634138.index
2765752922.index
2366822646.index
3864705861.index
2339649881.index
1536450200.index
3759452663.index
2235267327.index
885956853.index
2841694871.index
1642527143.index
1235741042.index
4137801316.index
3381810354.index
3539443108.index
942720826.index
3912187681.index
2240554000.index
2490016754.index
892875262.index
2105562782.index
3101655551.index
1889658511.index
1512288649.index
833375938.index
3520448715.index
1372512418.index
1857714477.index
3638108984.index
3944993461.index
2279024586.index
1200322373.index
3301474083.index
2950580945.index
1406673135.index
2878408936.index
3835489723.index
3326257426.index
2584273640.index
1557420533.index
1364543809.index
2915929057.index
3075228313.index
320290617.index
2645835193.index
1150748703.index
3953437937.index
3391209593.index
2660387906.index
1719546191.index
2235021950.index
2096662798.index
1480024272.index
