<?xml version="1.0" encoding="UTF-8"?>
<session version="1.0">
<refactoring comment="Delete resource &apos;Airsystem&apos;" deleteContents="true" description="Delete resource &apos;Airsystem&apos;" element1="/Airsystem" flags="7" id="org.eclipse.ltk.core.refactoring.delete.resources" resources="1" stamp="1648901762845"/>
</session>